Lab4FinalDemo/Lab4 noNIOS/simulation/qsim/DE1_SoC.msim.vcd
$comment
	File created using the following command:
		vcd file DE1_SoC.msim.vcd -direction
$end
$date
	Tue Mar 03 15:54:38 2015
$end
$version
	ModelSim Version 10.1e
$end
$timescale
	1ps
$end
$scope module clkCounter2_vlg_vec_tst $end
$var reg 1 ! clk $end
$var reg 1 " rst $end
$var wire 1 # out $end
$var wire 1 $ sampler $end
$scope module i1 $end
$var wire 1 % gnd $end
$var wire 1 & vcc $end
$var wire 1 ' unknown $end
$var tri1 1 ( devclrn $end
$var tri1 1 ) devpor $end
$var tri1 1 * devoe $end
$var wire 1 + out~output_o $end
$var wire 1 , clk~input_o $end
$var wire 1 - dff0|q~0_combout $end
$var wire 1 . rst~input_o $end
$var wire 1 / dff0|q~q $end
$var wire 1 0 dff1|q~0_combout $end
$var wire 1 1 dff1|q~q $end
$var wire 1 2 dff2|q~0_combout $end
$var wire 1 3 dff2|q~q $end
$var wire 1 4 dff3|q~0_combout $end
$var wire 1 5 dff3|q~q $end
$var wire 1 6 out~0_combout $end
$upscope $end
$upscope $end
$enddefinitions $end
#0
$dumpvars
1!
0"
0#
x$
0%
1&
x'
1(
1)
1*
0+
1,
1-
0.
0/
10
01
12
03
14
05
06
$end
#5000
0!
0,
0$
#10000
1!
1,
1$
1/
0-
#15000
0!
0,
0$
#20000
1!
1,
1$
0/
1-
11
00
#25000
0!
0,
0$
#30000
1!
1,
1$
1/
0-
#35000
0!
0,
0$
#40000
1!
1,
1$
0/
1-
01
10
13
02
#45000
0!
0,
0$
#50000
1!
1,
1$
1/
0-
#55000
0!
0,
0$
#60000
1!
1,
1$
0/
1-
11
00
#65000
0!
0,
0$
#70000
1!
1,
1$
1/
0-
#75000
0!
0,
0$
#80000
1!
1,
1$
0/
1-
01
10
03
12
15
04
#85000
0!
0,
0$
#90000
1!
1,
1$
1/
0-
#95000
0!
0,
0$
#100000
1!
1,
1$
0/
1-
11
00
#105000
0!
0,
0$
#110000
1!
1,
1$
1/
0-
#115000
0!
0,
0$
#120000
1!
1,
1$
0/
1-
01
10
13
02
#125000
0!
0,
0$
#130000
1!
1,
1$
1/
0-
#135000
0!
0,
0$
#140000
1!
1,
1$
0/
1-
11
00
#145000
0!
0,
0$
#150000
1!
1,
1$
1/
0-
16
1+
1#
#155000
0!
0,
0$
#160000
1!
1,
1$
0/
1-
06
0+
0#
01
10
03
12
05
14
#165000
0!
0,
0$
#170000
1!
1,
1$
1/
0-
#175000
0!
0,
0$
#180000
1!
1,
1$
0/
1-
11
00
#185000
0!
0,
0$
#190000
1!
1,
1$
1/
0-
#195000
0!
0,
0$
#200000
1!
1,
1$
0/
1-
01
10
13
02
#205000
0!
0,
0$
#210000
1!
1,
1$
1/
0-
#215000
0!
0,
0$
#220000
1!
1,
1$
0/
1-
11
00
#225000
0!
0,
0$
#230000
1!
1,
1$
1/
0-
#235000
0!
0,
0$
#240000
1!
1,
1$
0/
1-
01
10
03
12
15
04
#245000
0!
0,
0$
#250000
1!
1,
1$
1/
0-
#255000
0!
0,
0$
#260000
1!
1,
1$
0/
1-
11
00
#265000
0!
0,
0$
#270000
1!
1,
1$
1/
0-
#275000
0!
0,
0$
#280000
1!
1,
1$
0/
1-
01
10
13
02
#285000
0!
0,
0$
#290000
1!
1,
1$
1/
0-
#295000
0!
0,
0$
#300000
1!
1,
1$
0/
1-
11
00
#305000
0!
0,
0$
#310000
1!
1,
1$
1/
0-
16
1+
1#
#315000
0!
0,
0$
#320000
1!
1,
1$
0/
1-
06
0+
0#
01
10
03
12
05
14
#325000
0!
0,
0$
#330000
1!
1,
1$
1/
0-
#335000
0!
0,
0$
#340000
1!
1,
1$
0/
1-
11
00
#345000
0!
0,
0$
#350000
1!
1,
1$
1/
0-
#355000
0!
0,
0$
#360000
1!
1,
1$
0/
1-
01
10
13
02
#365000
0!
0,
0$
#370000
1!
1,
1$
1/
0-
#375000
0!
0,
0$
#380000
1!
1,
1$
0/
1-
11
00
#385000
0!
0,
0$
#390000
1!
1,
1$
1/
0-
#395000
0!
0,
0$
#400000
1!
1,
1$
0/
1-
01
10
03
12
15
04
#405000
0!
0,
0$
#410000
1!
1,
1$
1/
0-
#415000
0!
0,
0$
#420000
1!
1,
1$
0/
1-
11
00
#425000
0!
0,
0$
#430000
1!
1,
1$
1/
0-
#435000
0!
0,
0$
#440000
1!
1,
1$
0/
1-
01
10
13
02
#445000
0!
0,
0$
#450000
1!
1,
1$
1/
0-
#455000
0!
0,
0$
#460000
1!
1,
1$
0/
1-
11
00
#465000
0!
0,
0$
#470000
1!
1,
1$
1/
0-
16
1+
1#
#475000
0!
0,
0$
#480000
1!
1,
1$
0/
1-
06
0+
0#
01
10
03
12
05
14
#485000
0!
0,
0$
#490000
1!
1,
1$
1/
0-
#495000
0!
0,
0$
#500000
1!
1,
1$
0/
1-
11
00
#505000
0!
0,
0$
#510000
1!
1,
1$
1/
0-
#515000
0!
0,
0$
#520000
1!
1,
1$
0/
1-
01
10
13
02
#525000
0!
0,
0$
#530000
1!
1,
1$
1/
0-
#535000
0!
0,
0$
#540000
1!
1,
1$
0/
1-
11
00
#545000
0!
0,
0$
#550000
1!
1,
1$
1/
0-
#555000
0!
0,
0$
#560000
1!
1,
1$
0/
1-
01
10
03
12
15
04
#565000
0!
0,
0$
#570000
1!
1,
1$
1/
0-
#575000
0!
0,
0$
#580000
1!
1,
1$
0/
1-
11
00
#585000
0!
0,
0$
#590000
1!
1,
1$
1/
0-
#595000
0!
0,
0$
#600000
1!
1,
1$
0/
1-
01
10
13
02
#605000
0!
0,
0$
#610000
1!
1,
1$
1/
0-
#615000
0!
0,
0$
#620000
1!
1,
1$
0/
1-
11
00
#625000
0!
0,
0$
#630000
1!
1,
1$
1/
0-
16
1+
1#
#635000
0!
0,
0$
#640000
1!
1,
1$
0/
1-
06
0+
0#
01
10
03
12
05
14
#645000
0!
0,
0$
#650000
1!
1,
1$
1/
0-
#655000
0!
0,
0$
#660000
1!
1,
1$
0/
1-
11
00
#665000
0!
0,
0$
#670000
1!
1,
1$
1/
0-
#675000
0!
0,
0$
#680000
1!
1,
1$
0/
1-
01
10
13
02
#685000
0!
0,
0$
#690000
1!
1,
1$
1/
0-
#695000
0!
0,
0$
#700000
1!
1,
1$
0/
1-
11
00
#705000
0!
0,
0$
#710000
1!
1,
1$
1/
0-
#715000
0!
0,
0$
#720000
1!
1,
1$
0/
1-
01
10
03
12
15
04
#725000
0!
0,
0$
#730000
1!
1,
1$
1/
0-
#735000
0!
0,
0$
#740000
1!
1,
1$
0/
1-
11
00
#745000
0!
0,
0$
#750000
1!
1,
1$
1/
0-
#755000
0!
0,
0$
#760000
1!
1,
1$
0/
1-
01
10
13
02
#765000
0!
0,
0$
#770000
1!
1,
1$
1/
0-
#775000
0!
0,
0$
#780000
1!
1,
1$
0/
1-
11
00
#785000
0!
0,
0$
#790000
1!
1,
1$
1/
0-
16
1+
1#
#795000
0!
0,
0$
#800000
1!
1,
1$
0/
1-
06
0+
0#
01
10
03
12
05
14
#805000
0!
0,
0$
#810000
1!
1,
1$
1/
0-
#815000
0!
0,
0$
#820000
1!
1,
1$
0/
1-
11
00
#825000
0!
0,
0$
#830000
1!
1,
1$
1/
0-
#835000
0!
0,
0$
#840000
1!
1,
1$
0/
1-
01
10
13
02
#845000
0!
0,
0$
#850000
1!
1,
1$
1/
0-
#855000
0!
0,
0$
#860000
1!
1,
1$
0/
1-
11
00
#865000
0!
0,
0$
#870000
1!
1,
1$
1/
0-
#875000
0!
0,
0$
#880000
1!
1,
1$
0/
1-
01
10
03
12
15
04
#885000
0!
0,
0$
#890000
1!
1,
1$
1/
0-
#895000
0!
0,
0$
#900000
1!
1,
1$
0/
1-
11
00
#905000
0!
0,
0$
#910000
1!
1,
1$
1/
0-
#915000
0!
0,
0$
#920000
1!
1,
1$
0/
1-
01
10
13
02
#925000
0!
0,
0$
#930000
1!
1,
1$
1/
0-
#935000
0!
0,
0$
#940000
1!
1,
1$
0/
1-
11
00
#945000
0!
0,
0$
#950000
1!
1,
1$
1/
0-
16
1+
1#
#955000
0!
0,
0$
#960000
1!
1,
1$
0/
1-
06
0+
0#
01
10
03
12
05
14
#965000
0!
0,
0$
#970000
1!
1,
1$
1/
0-
#975000
0!
0,
0$
#980000
1!
1,
1$
0/
1-
11
00
#985000
0!
0,
0$
#990000
1!
1,
1$
1/
0-
#995000
0!
0,
0$
